project1/src/CPU.vcd
$date
	Wed Dec  7 05:24:55 2016
$end
$version
	Icarus Verilog
$end
$timescale
	1s
$end
$scope module TestBench $end
$var reg 1 ! Clk $end
$var reg 1 " Reset $end
$var reg 1 # Start $end
$var integer 32 $ counter [31:0] $end
$var integer 32 % flush [31:0] $end
$var integer 32 & i [31:0] $end
$var integer 32 ' outfile [31:0] $end
$var integer 32 ( stall [31:0] $end
$scope module CPU $end
$var wire 1 ) Flush $end
$var wire 1 ! clk_i $end
$var wire 1 " rst_i $end
$var wire 1 # start_i $end
$var wire 32 * new_pc [31:0] $end
$var wire 7 + mux8_o [6:0] $end
$var wire 32 , mux7_o [31:0] $end
$var wire 32 - mux6_o [31:0] $end
$var wire 32 . mux4_o [31:0] $end
$var wire 5 / mux3_o [4:0] $end
$var wire 32 0 mux1_o [31:0] $end
$var wire 32 1 instr_o [31:0] $end
$var wire 32 2 instr_addr [31:0] $end
$var wire 32 3 extended_o [31:0] $end
$var wire 1 4 bubble_o $end
$var wire 32 5 branch_pc [31:0] $end
$var wire 32 6 added_pc [31:0] $end
$var wire 32 7 RTdata_o [31:0] $end
$var wire 32 8 RSdata_o [31:0] $end
$var wire 1 9 RS_RT_equal $end
$var wire 1 : PC_Write_o $end
$var wire 32 ; MEM_WB_mux5_o [31:0] $end
$var wire 32 < MEM_WB_REG_DATA [31:0] $end
$var wire 5 = MEM_WB_REGDST [4:0] $end
$var wire 32 > MEM_WB_LOAD_DATA [31:0] $end
$var wire 2 ? MEM_WB_CONTROL [1:0] $end
$var wire 1 @ IF_ID_Write_o $end
$var wire 32 A IF_ID_PC [31:0] $end
$var wire 32 B IF_ID_IS [31:0] $end
$var wire 32 C ID_EX_RT [31:0] $end
$var wire 32 D ID_EX_RS [31:0] $end
$var wire 15 E ID_EX_IS [14:0] $end
$var wire 32 F ID_EX_IMMEDIATE [31:0] $end
$var wire 7 G ID_EX_CONTROL [6:0] $end
$var wire 2 H ForwardB_o [1:0] $end
$var wire 2 I ForwardA_o [1:0] $end
$var wire 32 J EX_MEM_WRDATA [31:0] $end
$var wire 32 K EX_MEM_RESULT [31:0] $end
$var wire 5 L EX_MEM_REGDST [4:0] $end
$var wire 3 M EX_MEM_CONTROL [2:0] $end
$var wire 32 N ALUdata_o [31:0] $end
$scope module ADD $end
$var wire 32 O data1_in [31:0] $end
$var wire 32 P data2_in [31:0] $end
$var wire 32 Q data_o [31:0] $end
$upscope $end
$scope module ALU $end
$var wire 1 R Zero_o $end
$var wire 1 S zero_o $end
$var wire 32 T data2_i [31:0] $end
$var wire 32 U data1_i [31:0] $end
$var wire 3 V ALUCtrl_i [2:0] $end
$var reg 32 W data_o [31:0] $end
$upscope $end
$scope module ALU_Control $end
$var wire 2 X ALUOp_i [1:0] $end
$var wire 6 Y funct_i [5:0] $end
$var wire 3 Z ALUCtrl_o [2:0] $end
$upscope $end
$scope module Add_PC $end
$var wire 32 [ data2_in [31:0] $end
$var wire 32 \ data_o [31:0] $end
$var wire 32 ] data1_in [31:0] $end
$upscope $end
$scope module Control $end
$var wire 1 ^ ALUSrc_o $end
$var wire 1 _ Branch_o $end
$var wire 1 ` ExtOp_o $end
$var wire 1 a Jump_o $end
$var wire 1 b MemWrite_o $end
$var wire 1 c MemtoReg_o $end
$var wire 6 d Op_i [5:0] $end
$var wire 1 e RegDst_o $end
$var wire 1 f RegWrite_o $end
$var wire 1 g sw $end
$var wire 1 h r_type $end
$var wire 1 i lw $end
$var wire 1 j jump $end
$var wire 1 k beq $end
$var wire 1 l addi $end
$var wire 2 m ALUOp_o [1:0] $end
$upscope $end
$scope module Data_Memory $end
$var wire 32 n addr_i [31:0] $end
$var wire 1 o memWrite_i $end
$var wire 32 p write_data_i [31:0] $end
$var reg 32 q read_data_o [31:0] $end
$upscope $end
$scope module EX_MEM $end
$var wire 1 ! clk_i $end
$var wire 1 " rst_i $end
$var wire 72 r write_i [71:0] $end
$var reg 72 s read_o [71:0] $end
$upscope $end
$scope module FW $end
$var wire 1 t EX_Hazard $end
$var wire 5 u EX_MEM_Rd_i [4:0] $end
$var wire 1 v EX_MEM_RegWrite_i $end
$var wire 5 w ID_EX_Rs_i [4:0] $end
$var wire 5 x ID_EX_Rt_i [4:0] $end
$var wire 1 y MEM_Hazard $end
$var wire 5 z MEM_WB_Rd_i [4:0] $end
$var wire 1 { MEM_WB_RegWrite_i $end
$var wire 2 | ForwardB_o [1:0] $end
$var wire 2 } ForwardA_o [1:0] $end
$upscope $end
$scope module HD $end
$var wire 1 ~ ID_EX_MemRead_i $end
$var wire 5 !" ID_EX_Rt_i [4:0] $end
$var wire 5 "" IF_ID_Rs_i [4:0] $end
$var wire 5 #" IF_ID_Rt_i [4:0] $end
$var wire 1 @ IF_ID_Write_o $end
$var wire 1 : PC_Write_o $end
$var wire 1 4 bubble_o $end
$var wire 1 $" stall $end
$upscope $end
$scope module ID_EX $end
$var wire 1 ! clk_i $end
$var wire 1 " rst_i $end
$var wire 118 %" write_i [117:0] $end
$var reg 118 &" read_o [117:0] $end
$upscope $end
$scope module IF_ID $end
$var wire 1 ! clk_i $end
$var wire 1 ) flush_i $end
$var wire 1 " rst_i $end
$var wire 1 @ stall_i $end
$var wire 64 '" write_i [63:0] $end
$var reg 64 (" read_o [63:0] $end
$upscope $end
$scope module Instruction_Memory $end
$var wire 32 )" instr_o [31:0] $end
$var wire 32 *" addr_i [31:0] $end
$upscope $end
$scope module MEM_WB $end
$var wire 1 ! clk_i $end
$var wire 1 " rst_i $end
$var wire 71 +" write_i [70:0] $end
$var reg 71 ," read_o [70:0] $end
$upscope $end
$scope module MUX1 $end
$var wire 32 -" data1_i [31:0] $end
$var wire 32 ." data2_i [31:0] $end
$var wire 1 /" select_i $end
$var wire 32 0" data_o [31:0] $end
$upscope $end
$scope module MUX2 $end
$var wire 32 1" data1_i [31:0] $end
$var wire 32 2" data2_i [31:0] $end
$var wire 1 a select_i $end
$var wire 32 3" data_o [31:0] $end
$upscope $end
$scope module MUX5 $end
$var wire 32 4" data1_i [31:0] $end
$var wire 32 5" data2_i [31:0] $end
$var wire 1 6" select_i $end
$var wire 32 7" data_o [31:0] $end
$upscope $end
$scope module MUX8 $end
$var wire 7 8" data1_i [6:0] $end
$var wire 7 9" data2_i [6:0] $end
$var wire 1 4 select_i $end
$var wire 7 :" data_o [6:0] $end
$upscope $end
$scope module MUX_ALUSrc $end
$var wire 32 ;" data2_i [31:0] $end
$var wire 1 <" select_i $end
$var wire 32 =" data_o [31:0] $end
$var wire 32 >" data1_i [31:0] $end
$upscope $end
$scope module MUX_RegDst $end
$var wire 5 ?" data1_i [4:0] $end
$var wire 5 @" data2_i [4:0] $end
$var wire 1 A" select_i $end
$var wire 5 B" data_o [4:0] $end
$upscope $end
$scope module PC $end
$var wire 1 ! clk_i $end
$var wire 32 C" pc_i [31:0] $end
$var wire 1 : pc_write_i $end
$var wire 1 " rst_i $end
$var wire 1 # start_i $end
$var reg 32 D" pc_o [31:0] $end
$upscope $end
$scope module Registers $end
$var wire 5 E" RDaddr_i [4:0] $end
$var wire 32 F" RDdata_i [31:0] $end
$var wire 5 G" RSaddr_i [4:0] $end
$var wire 32 H" RSdata_o [31:0] $end
$var wire 5 I" RTaddr_i [4:0] $end
$var wire 32 J" RTdata_o [31:0] $end
$var wire 1 K" RegWrite_i $end
$var wire 1 ! clk_i $end
$upscope $end
$scope module Sign_Extend $end
$var wire 16 L" data_i [15:0] $end
$var wire 32 M" data_o [31:0] $end
$upscope $end
$scope module mux6 $end
$var wire 32 N" data00_i [31:0] $end
$var wire 32 O" data01_i [31:0] $end
$var wire 32 P" data10_i [31:0] $end
$var wire 32 Q" data11_i [31:0] $end
$var wire 2 R" select_i [1:0] $end
$var wire 32 S" data_o [31:0] $end
$upscope $end
$scope module mux7 $end
$var wire 32 T" data00_i [31:0] $end
$var wire 32 U" data01_i [31:0] $end
$var wire 32 V" data10_i [31:0] $end
$var wire 32 W" data11_i [31:0] $end
$var wire 2 X" select_i [1:0] $end
$var wire 32 Y" data_o [31:0] $end
$upscope $end
$upscope $end
$upscope $end
$enddefinitions $end
#0
$dumpvars
bx Y"
bx X"
b0 W"
bx V"
bx U"
bx T"
bx S"
bx R"
b0 Q"
bx P"
bx O"
bx N"
bx M"
bx L"
xK"
bx J"
bx I"
bx H"
bx G"
bx F"
bx E"
bx D"
bx C"
bx B"
xA"
bx @"
bx ?"
bx >"
bx ="
x<"
bx ;"
bx :"
b0 9"
bx 8"
bx 7"
x6"
bx 5"
bx 4"
bx 3"
bx00 2"
bx 1"
bx 0"
x/"
bx ."
bx -"
bx ,"
bx +"
bx *"
bx )"
bx ("
bx '"
bx &"
bx %"
x$"
bx #"
bx ""
bx !"
x~
bx }
bx |
x{
bx z
xy
bx x
bx w
xv
bx u
xt
bx s
bx00000000000000000000000000000000xxxxxxxxxxxxxxxxxxxxxxxxxxxxxxxxxxxxx r
bx q
bx p
xo
bx n
bx m
xl
xk
xj
xi
xh
xg
xf
xe
bx d
xc
xb
xa
x`
x_
x^
bx ]
bx \
b100 [
bx Z
bx Y
bx X
b0 W
bx V
bx U
bx T
xS
zR
bx Q
bx P
bx00 O
b0 N
bx M
bx L
bx K
bx J
bx I
bx H
bx G
bx F
bx E
bx D
bx C
bx B
bx A
x@
bx ?
bx >
bx =
bx <
bx ;
x:
x9
bx 8
bx 7
bx 6
bx 5
x4
bx 3
bx 2
bx 1
bx 0
bx /
bx .
bx -
bx ,
bx +
bx *
x)
b0 (
b11 '
b100000 &
b0 %
b0 $
0#
x"
1!
$end
#1
1S
1f
0^
0)
b0 .
b0 T
b0 ="
b11 m
0`
0/"
b100 *
b100 3"
b100 C"
b100 0
b100 0"
b100 1"
b0 -
b0 U
b0 S"
b0 ,
b0 >"
b0 Y"
b0 I
b0 }
b0 R"
b0 H
b0 |
b0 X"
b0 N
b0 W
b1001011 +
b1001011 :"
1e
1h
0l
0c
0i
b1001011 8"
0b
0g
0_
0k
0a
0j
b0 5
b0 Q
b0 ."
b0 /
b0 B"
b10 V
b10 Z
04
0@
0:
0$"
b0 O
0y
b0 ;
b0 7"
b0 F"
b0 O"
b0 U"
06"
0{
0K"
0t
b101 q
0o
0v
b0 w
b0 x
b0 ?"
b0 @"
b0 !"
b0 Y
0<"
0A"
b0 X
b0 r
0~
b0 ""
b0 #"
b0 d
19
b0 8
b0 H"
b0 G"
b0 7
b0 J"
b0 I"
b0 3
b0 M"
b0 L"
b1001011000000000000000000000000000000000000000000000000000000000000000000000000000000000000000000000000000000000000000 %"
b0 2"
b0 =
b0 z
b0 E"
b0 <
b0 4"
b0 >
b0 5"
b0 ?
b0 L
b0 u
b0 J
b0 p
b1010000000000000000000000000000000000000 +"
b0 K
b0 n
b0 P"
b0 V"
b0 M
b0 E
b0 F
b0 ;"
b0 C
b0 T"
b0 D
b0 N"
b0 G
b0 B
b0 A
b0 P
b100000000100000 1
b100000000100000 )"
b0 ,"
b0 s
b0 &"
b0 ("
b10000000000000000000100000000100000 '"
b100 6
b100 \
b100 -"
b0 2
b0 ]
b0 *"
b0 D"
1"
#13
1#
0"
#25
0!
#50
b10000000010000000 O
b1000 *
b1000 3"
b1000 C"
b100000000100000 3
b100000000100000 M"
b100000000100000 L"
b1001011000000000000000000000000000000000000000000000000000000000000000000000000000000000100000000100000000000000001000 %"
b10000000010000000 2"
1A"
b11 X
b100000000000000000000000000000000000000000000000000000000000000000000000 r
b100000000010010000000000001010 1
b100000000010010000000000001010 )"
b1000 0
b1000 0"
b1000 1"
b100000000100000 B
b10000000010000100 5
b10000000010000100 Q
b10000000010000100 ."
b100 A
b100 P
b1001011 G
b101 >
b101 5"
b100000100000000010010000000000001010 '"
b1000 6
b1000 \
b1000 -"
b100 2
b100 ]
b100 *"
b100 D"
b10000000000000000000100000000100000 ("
b1001011000000000000000000000000000000000000000000000000000000000000000000000000000000000000000000000000000000000000000 &"
b1010000000000000000000000000000000000000 ,"
b1 $
1!
#75
0!
#100
1^
b0 m
b1000100 +
b1000100 :"
b1000100 8"
0e
0h
1l
b100000000000000000000000000000000000000000000000000000000000000000001000 r
b1000 /
b1000 B"
b101000 O
b10000000000000000000000000000001010000000000000000000000000000000000000 +"
1v
b1000 @"
b100000 Y
b1001 #"
b1000 d
b1001 I"
b1010 3
b1010 M"
b1010 L"
b1000100000000000000000000000000000000000000000000000000000000000000000000000000000000000000000000001010000000100100000 %"
b1001000000000000101000 2"
b1100 *
b1100 3"
b1100 C"
b100 M
b1000 E
b100000000100000 F
b100000000100000 ;"
b100000000010010000000000001010 B
b110000 5
b110000 Q
b110000 ."
b1000 A
b1000 P
b10101101000000000000000000000000 1
b10101101000000000000000000000000 )"
b1100 0
b1100 0"
b1100 1"
b100000000000000000000000000000000000000000000000000000000000000000000000 s
b1001011000000000000000000000000000000000000000000000000000000000000000000000000000000000100000000100000000000000001000 &"
b100000100000000010010000000000001010 ("
b110010101101000000000000000000000000 '"
b1100 6
b1100 \
b1100 -"
b1000 2
b1000 ]
b1000 *"
b1000 D"
b10 $
1!
#125
0!
#150
0f
1`
b10100 +
b10100 :"
0S
0l
b10100 8"
1b
1g
b1010 N
b1010 W
b0 O
b1010 .
b1010 T
b1010 ="
b100000000000000000000000000000010100000000000000000000000000000000001001 r
b1001 /
b1001 B"
b10000 *
b10000 3"
b10000 C"
b1000 ""
b0 #"
b101011 d
b1000 G"
b0 I"
b0 3
b0 M"
b0 L"
b10100000000000000000000000000000000000000000000000000000000000000000000000000000000000000000000000000010000000000000 %"
b100000000000000000000000000 2"
b1001 x
b1001 ?"
b0 @"
b1001 !"
b1010 Y
1<"
0A"
b0 X
1t
1{
1K"
b10101101000010010000000000000100 1
b10101101000010010000000000000100 )"
b10000 0
b10000 0"
b10000 1"
b10101101000000000000000000000000 B
b1100 5
b1100 Q
b1100 ."
b1100 A
b1100 P
b100100000 E
b1010 F
b1010 ;"
b1000100 G
b10000000000000000000000000000001010000000000000000000000000000000001000 +"
b1000 L
b1000 u
b10 ?
b1000010101101000010010000000000000100 '"
b10000 6
b10000 \
b10000 -"
b1100 2
b1100 ]
b1100 *"
b1100 D"
b110010101101000000000000000000000000 ("
b1000100000000000000000000000000000000000000000000000000000000000000000000000000000000000000000000001010000000100100000 &"
b100000000000000000000000000000000000000000000000000000000000000000001000 s
b10000000000000000000000000000001010000000000000000000000000000000000000 ,"
b11 $
1!
#175
0!
#200
b1 I
b1 }
b1 R"
1S
b0 /
b0 B"
b0 N
b0 W
b10000 O
1y
b0 q
b1000 w
b0 x
b0 ?"
b0 !"
b0 Y
b0 .
b0 T
b0 ="
b1000000000000000000000000000000000000000000000000000000000000000000000 r
b1001 #"
b1001 I"
b100 3
b100 M"
b100 L"
b10100000000000000000000000000000000000000000000000000000000000000000000000000000000000000000000000100010000100100000 %"
b100001001000000000000010000 2"
b10100 *
b10100 3"
b10100 C"
b1000 =
b1000 z
b1000 E"
b1001 L
b1001 u
b10000000000000000000000000000000000000000000000000000000000000101001001 +"
b1010 K
b1010 n
b1010 P"
b1010 V"
b10000000000000 E
b0 F
b0 ;"
b10100 G
b10101101000010010000000000000100 B
b100000 5
b100000 Q
b100000 ."
b10000 A
b10000 P
b10001101000011010000000000000100 1
b10001101000011010000000000000100 )"
b10100 0
b10100 0"
b10100 1"
b10000000000000000000000000000001010000000000000000000000000000000001000 ,"
b100000000000000000000000000000010100000000000000000000000000000000001001 s
b10100000000000000000000000000000000000000000000000000000000000000000000000000000000000000000000000000010000000000000 &"
b1000010101101000010010000000000000100 ("
b1010010001101000011010000000000000100 '"
b10100 6
b10100 \
b10100 -"
b10000 2
b10000 ]
b10000 *"
b10000 D"
b100 $
1!
#225
0!
#250
b1010 ,
b1010 >"
b1010 Y"
1f
1^
b1100100 +
b1100100 :"
1c
1i
b1100100 8"
0b
0g
0S
b0 I
b0 }
b0 R"
b0 -
b0 U
b0 S"
b1001 /
b1001 B"
b1000000000000000000000000000001000000000000000000000000000000101001001 r
b100 N
b100 W
b1 H
b1 |
b1 X"
b11000 *
b11000 3"
b11000 C"
b1101 #"
b100011 d
b1101 I"
b1100100000000000000000000000000000000000000000000000000000000000000000000000000000000000000000000000100010000110100000 %"
b100001101000000000000010000 2"
b1001 x
b1001 ?"
b1001 !"
b100 Y
b100 .
b100 T
b100 ="
0t
1o
0v
b1010 ;
b1010 7"
b1010 F"
b1010 O"
b1010 U"
b1101010010111100000100000 1
b1101010010111100000100000 )"
b11000 0
b11000 0"
b11000 1"
b10001101000011010000000000000100 B
b100100 5
b100100 Q
b100100 ."
b10100 A
b10100 P
b10000100100000 E
b100 F
b100 ;"
b0 L
b0 u
b0 +"
b0 K
b0 n
b0 P"
b0 V"
b1 M
b1001 =
b1001 z
b1001 E"
b1010 <
b1010 4"
b0 >
b0 5"
b1100000000001101010010111100000100000 '"
b11000 6
b11000 \
b11000 -"
b10100 2
b10100 ]
b10100 *"
b10100 D"
b1010010001101000011010000000000000100 ("
b10100000000000000000000000000000000000000000000000000000000000000000000000000000000000000000000000100010000100100000 &"
b1000000000000000000000000000000000000000000000000000000000000000000000 s
b10000000000000000000000000000000000000000000000000000000000000101001001 ,"
b101 $
1!
#275
0!
#300
0^
b11 m
0`
1f
b0 H
b0 |
b0 X"
b0 ,
b0 >"
b0 Y"
b0 +
b0 :"
1e
1h
b1001011 8"
0c
0i
b1101 /
b1101 B"
14
1@
1:
1$"
b11110000010000000 O
0y
b0 ;
b0 7"
b0 F"
b0 O"
b0 U"
0{
0K"
b1101 x
b1101 ?"
b1101 !"
b110000000000000000000000000000001000000000000000000000000000000000001101 r
1~
b1101 ""
b1001 #"
b0 d
b1101 G"
09
b1010 7
b1010 J"
b1001 I"
b111100000100000 3
b111100000100000 M"
b111100000100000 L"
b101000000000000000000111100000100000011010100101111 %"
b110101001011110000010000000 2"
b11100 *
b11100 3"
b11100 C"
b0 =
b0 z
b0 E"
b0 <
b0 4"
b0 ?
b1001 L
b1001 u
b1010 J
b1010 p
b10001001 +"
b100 K
b100 n
b100 P"
b100 V"
b10000110100000 E
b1100100 G
b1101010010111100000100000 B
b11110000010011000 5
b11110000010011000 Q
b11110000010011000 ."
b11000 A
b11000 P
b100000000010100000000000001101 1
b100000000010100000000000001101 )"
b11100 0
b11100 0"
b11100 1"
b0 ,"
b1000000000000000000000000000001000000000000000000000000000000101001001 s
b1100100000000000000000000000000000000000000000000000000000000000000000000000000000000000000000000000100010000110100000 &"
b1100000000001101010010111100000100000 ("
b1110000100000000010100000000000001101 '"
b11100 6
b11100 \
b11100 -"
b11000 2
b11000 ]
b11000 *"
b11000 D"
b110 $
1!
#325
0!
#350
b100 -
b100 U
b100 S"
b10 I
b10 }
b10 R"
b1001011000000000000000000000000000000000000000000000000000000000000101000000000000000000111100000100000011010100101111 %"
b1001011 +
b1001011 :"
b1001 /
b1001 B"
b1110 N
b1110 W
04
0@
0:
0$"
1t
b1101 w
b1001 x
b1001 ?"
b1111 @"
b1001 !"
b100000 Y
b1010 .
b1010 T
b1010 ="
b1010 ,
b1010 >"
b1010 Y"
0<"
b11100000000000000000000000000000101001001 r
0~
b1010 q
0o
1v
b100 ;
b100 7"
b100 F"
b100 O"
b100 U"
b11010100101111 E
b111100000100000 F
b111100000100000 ;"
b1010 C
b1010 T"
b0 G
b11000000000000000000000000000010100000000000000000000000000000010001101 +"
b1101 L
b1101 u
b0 J
b0 p
b110 M
b1001 =
b1001 z
b1001 E"
b100 <
b100 4"
b101000000000000000000111100000100000011010100101111 &"
b110000000000000000000000000000001000000000000000000000000000000000001101 s
b10001001 ,"
b111 $
b1 (
1!
#375
0!
#400
1S
1^
b1010 .
b1010 T
b1010 ="
b10100 N
b10100 W
b0 m
b1000100 +
b1000100 :"
b1010 ,
b1010 >"
b1010 Y"
b1010 -
b1010 U
b1010 S"
b1000100 8"
0e
0h
1l
b1010 ;
b1010 7"
b1010 F"
b1010 O"
b1010 U"
1y
b1 I
b1 }
b1 R"
b0 H
b0 |
b0 X"
0t
b1111 /
b1111 B"
b110100 O
16"
1{
1K"
b0 q
0v
1A"
b11 X
b100000000000000000000000000000101000000000000000000000000000000101001111 r
b0 ""
b1010 #"
b1000 d
b0 G"
19
b0 7
b0 J"
b1010 I"
b1101 3
b1101 M"
b1101 L"
b1000100000000000000000000000000000000000000000000000000000000000000000000000000000000000000000000001101000000101000000 %"
b1010000000000000110100 2"
b100000 *
b100000 3"
b100000 C"
b1101 =
b1101 z
b1101 E"
b1010 >
b1010 5"
b11 ?
b1001 L
b1001 u
b1010 J
b1010 p
b111001001 +"
b1110 K
b1110 n
b1110 P"
b1110 V"
b0 M
b1001011 G
b100000000010100000000000001101 B
b1010000 5
b1010000 Q
b1010000 ."
b11100 A
b11100 P
b1001010010101100000011000 1
b1001010010101100000011000 )"
b100000 0
b100000 0"
b100000 1"
b11000000000000000000000000000010100000000000000000000000000000010001101 ,"
b11100000000000000000000000000000101001001 s
b1001011000000000000000000000000000000000000000000000000000000000000101000000000000000000111100000100000011010100101111 &"
b1110000100000000010100000000000001101 ("
b10000000000001001010010101100000011000 '"
b100000 6
b100000 \
b100000 -"
b11100 2
b11100 ]
b11100 *"
b11100 D"
b1000 $
1!
#425
0!
#450
0^
b11 m
b1001011 +
b1001011 :"
0S
b1001011 8"
1e
1h
0l
b1101 N
b1101 W
b0 I
b0 }
b0 R"
b0 -
b0 U
b0 S"
b10110000001100000 O
b1101 .
b1101 T
b1101 ="
b1010 /
b1010 B"
1t
0y
b100100 *
b100100 3"
b100100 C"
b1001 ""
b1001 #"
b0 d
b1010 8
b1010 H"
b1001 G"
19
b1010 7
b1010 J"
b1001 I"
b101100000011000 3
b101100000011000 M"
b101100000011000 L"
b1001011000000000000000000000000000010100000000000000000000000000000101000000000000000000101100000011000010010100101011 %"
b100101001010110000001100000 2"
b0 w
b1010 x
b1010 ?"
b0 @"
b1010 !"
b1101 Y
b100000000000000000000000000000011010000000000000000000000000000000001010 r
b0 ,
b0 >"
b0 Y"
1<"
0A"
b0 X
1v
b1110 ;
b1110 7"
b1110 F"
b1110 O"
b1110 U"
06"
0{
0K"
b1000000000000000000000001011 1
b1000000000000000000000001011 )"
b100100 0
b100100 0"
b100100 1"
b1001010010101100000011000 B
b10110000010000000 5
b10110000010000000 Q
b10110000010000000 ."
b100000 A
b100000 P
b101000000 E
b1101 F
b1101 ;"
b0 C
b0 T"
b1000100 G
b1111 L
b1111 u
b10000000000000000000000000000000000000000000000000000000000001010001111 +"
b10100 K
b10100 n
b10100 P"
b10100 V"
b100 M
b1001 =
b1001 z
b1001 E"
b1110 <
b1110 4"
b0 >
b0 5"
b0 ?
b10010000001000000000000000000000001011 '"
b100100 6
b100100 \
b100100 -"
b100000 2
b100000 ]
b100000 *"
b100000 D"
b10000000000001001010010101100000011000 ("
b1000100000000000000000000000000000000000000000000000000000000000000000000000000000000000000000000001101000000101000000 &"
b100000000000000000000000000000101000000000000000000000000000000101001111 s
b111001001 ,"
b1001 $
1!
#475
0!
#500
0f
b0 m
b0 +
b0 :"
1)
1S
b0 8"
0e
0h
1a
1j
1y
b1100100 N
b1100100 W
b1011 /
b1011 B"
b11 V
b11 Z
b101100 O
b10100 ;
b10100 7"
b10100 F"
b10100 O"
b10100 U"
1{
1K"
b1001 w
b1001 x
b1001 ?"
b1011 @"
b1001 !"
b11000 Y
b1010 .
b1010 T
b1010 ="
b100000000000000000000000000011001000000000000000000000000000000101001011 r
b1010 ,
b1010 >"
b1010 Y"
b1010 -
b1010 U
b1010 S"
0<"
1A"
b11 X
b0 ""
b0 #"
b10 d
b0 8
b0 H"
b0 G"
19
b0 7
b0 J"
b0 I"
b1011 3
b1011 M"
b1011 L"
b1011000000000000000 %"
b101100 2"
b101100 *
b101100 3"
b101100 C"
b1111 =
b1111 z
b1111 E"
b10100 <
b10100 4"
b10 ?
b1010 L
b1010 u
b0 J
b0 p
b10000000000000000000000000000000000000000000000000000000000000110101010 +"
b1101 K
b1101 n
b1101 P"
b1101 V"
b10010100101011 E
b101100000011000 F
b101100000011000 ;"
b1010 C
b1010 T"
b1010 D
b1010 N"
b1001011 G
b1000000000000000000000001011 B
b1010000 5
b1010000 Q
b1010000 ."
b100100 A
b100100 P
b100001001010010000000000000001 1
b100001001010010000000000000001 )"
b101000 0
b101000 0"
b101000 1"
b10000000000000000000000000000000000000000000000000000000000001010001111 ,"
b100000000000000000000000000000011010000000000000000000000000000000001010 s
b1001011000000000000000000000000000010100000000000000000000000000000101000000000000000000101100000011000010010100101011 &"
b10010000001000000000000000000000001011 ("
b10100000100001001010010000000000000001 '"
b101000 6
b101000 \
b101000 -"
b100100 2
b100100 ]
b100100 *"
b100100 D"
b1010 $
1!
#525
0!
#550
1f
b11 m
b1001011 +
b1001011 :"
0)
b1001011 8"
1e
1h
0a
0j
1S
b10000000 O
b110000 *
b110000 3"
b110000 C"
b0 .
b0 T
b0 ="
b0 N
b0 W
b0 /
b0 B"
b10 V
b10 Z
b0 d
b1001011000000000000000000000000000000000000000000000000000000000000000000000000000000000000000000100000000000000000000 %"
b100000 3
b100000 M"
b100000 L"
b10000000 2"
b0 w
b0 x
b0 ?"
b0 @"
b0 !"
b1011 Y
b0 ,
b0 >"
b0 Y"
b0 -
b0 U
b0 S"
0A"
b0 X
b0 r
bx q
b1101 ;
b1101 7"
b1101 F"
b1101 O"
b1101 U"
b1010010010101000000100010 1
b1010010010101000000100010 )"
b110000 0
b110000 0"
b110000 1"
b100000 B
b10000000 5
b10000000 Q
b10000000 ."
b0 A
b0 P
b0 E
b1011 F
b1011 ;"
b0 C
b0 T"
b0 D
b0 N"
b0 G
b1011 L
b1011 u
b1010 J
b1010 p
b10xxxxxxxxxxxxxxxxxxxxxxxxxxxxxxxx0000000000000000000000000110010001011 +"
b1100100 K
b1100100 n
b1100100 P"
b1100100 V"
b1010 =
b1010 z
b1010 E"
b1101 <
b1101 4"
b11000000000001010010010101000000100010 '"
b110000 6
b110000 \
b110000 -"
b101100 2
b101100 ]
b101100 *"
b101100 D"
b100000 ("
b1011000000000000000 &"
b100000000000000000000000000011001000000000000000000000000000000101001011 s
b10000000000000000000000000000000000000000000000000000000000000110101010 ,"
b1011 $
b1 %
1!
#575
0!
#600
b0 I
b0 }
b0 R"
b0 H
b0 |
b0 X"
b10 V
b10 Z
b10100000010001000 O
b1100100 ;
b1100100 7"
b1100100 F"
b1100100 O"
b1100100 U"
0t
b0 q
0v
b100000 Y
1A"
b11 X
b100000000000000000000000000000000000000000000000000000000000000000000000 r
b1010 ""
b1001 #"
b1101 8
b1101 H"
b1010 G"
09
b1010 7
b1010 J"
b1001 I"
b101000000100010 3
b101000000100010 M"
b101000000100010 L"
b1001011000000000000000000000000000011010000000000000000000000000000101000000000000000000101000000100010010100100101010 %"
b101001001010100000010001000 2"
b110100 *
b110100 3"
b110100 C"
b1011 =
b1011 z
b1011 E"
b1100100 <
b1100100 4"
bx >
bx 5"
b0 L
b0 u
b0 J
b0 p
b0 +"
b0 K
b0 n
b0 P"
b0 V"
b0 M
b100000 F
b100000 ;"
b1001011 G
b1010010010101000000100010 B
b10100000010111000 5
b10100000010111000 Q
b10100000010111000 ."
b110000 A
b110000 P
b1001010100101100000100100 1
b1001010100101100000100100 )"
b110100 0
b110100 0"
b110100 1"
b10xxxxxxxxxxxxxxxxxxxxxxxxxxxxxxxx0000000000000000000000000110010001011 ,"
b0 s
b1001011000000000000000000000000000000000000000000000000000000000000000000000000000000000000000000100000000000000000000 &"
b11000000000001010010010101000000100010 ("
b11010000000001001010100101100000100100 '"
b110100 6
b110100 \
b110100 -"
b110000 2
b110000 ]
b110000 *"
b110000 D"
b1100 $
1!
#625
0!
#650
b110 V
b110 Z
0S
b10110000010010000 O
b1010 /
b1010 B"
b1010 .
b1010 T
b1010 ="
b11 N
b11 W
b111000 *
b111000 3"
b111000 C"
b1001 ""
b1010 #"
b1010 8
b1010 H"
b1001 G"
09
b1101 7
b1101 J"
b1010 I"
b101100000100100 3
b101100000100100 M"
b101100000100100 L"
b1001011000000000000000000000000000010100000000000000000000000000000110100000000000000000101100000100100010010101001011 %"
b100101010010110000010010000 2"
b1010 w
b1001 x
b1001 ?"
b1010 @"
b1001 !"
b100010 Y
b100000000000000000000000000000000110000000000000000000000000000101001010 r
b1010 ,
b1010 >"
b1010 Y"
b1101 -
b1101 U
b1101 S"
b10000000000000000000000000000000000000000000000000000000000000000000000 +"
1v
0y
b0 ;
b0 7"
b0 F"
b0 O"
b0 U"
0{
0K"
b1010010110110000000100101 1
b1010010110110000000100101 )"
b111000 0
b111000 0"
b111000 1"
b1001010100101100000100100 B
b10110000011000100 5
b10110000011000100 Q
b10110000011000100 ."
b110100 A
b110100 P
b10100100101010 E
b101000000100010 F
b101000000100010 ;"
b1010 C
b1010 T"
b1101 D
b1101 N"
b100 M
b0 =
b0 z
b0 E"
b0 <
b0 4"
b0 >
b0 5"
b0 ?
b11100000000001010010110110000000100101 '"
b111000 6
b111000 \
b111000 -"
b110100 2
b110100 ]
b110100 *"
b110100 D"
b11010000000001001010100101100000100100 ("
b1001011000000000000000000000000000011010000000000000000000000000000101000000000000000000101000000100010010100100101010 &"
b100000000000000000000000000000000000000000000000000000000000000000000000 s
b0 ,"
b1101 $
1!
#675
0!
