project1/src/dump.vcd
$date
	Wed Dec  7 05:20:56 2016
$end
$version
	Icarus Verilog
$end
$timescale
	1s
$end
$scope module TestBench $end
$scope module CPU $end
$var wire 1 ! Flush $end
$var wire 1 " clk_i $end
$var wire 1 # rst_i $end
$var wire 1 $ start_i $end
$var wire 32 % new_pc [31:0] $end
$var wire 7 & mux8_o [6:0] $end
$var wire 32 ' mux7_o [31:0] $end
$var wire 32 ( mux6_o [31:0] $end
$var wire 32 ) mux4_o [31:0] $end
$var wire 5 * mux3_o [4:0] $end
$var wire 32 + mux1_o [31:0] $end
$var wire 32 , instr_o [31:0] $end
$var wire 32 - instr_addr [31:0] $end
$var wire 32 . extended_o [31:0] $end
$var wire 1 / bubble_o $end
$var wire 32 0 branch_pc [31:0] $end
$var wire 32 1 added_pc [31:0] $end
$var wire 32 2 RTdata_o [31:0] $end
$var wire 32 3 RSdata_o [31:0] $end
$var wire 1 4 RS_RT_equal $end
$var wire 1 5 PC_Write_o $end
$var wire 32 6 MEM_WB_mux5_o [31:0] $end
$var wire 32 7 MEM_WB_REG_DATA [31:0] $end
$var wire 5 8 MEM_WB_REGDST [4:0] $end
$var wire 32 9 MEM_WB_LOAD_DATA [31:0] $end
$var wire 2 : MEM_WB_CONTROL [1:0] $end
$var wire 1 ; IF_ID_Write_o $end
$var wire 32 < IF_ID_PC [31:0] $end
$var wire 32 = IF_ID_IS [31:0] $end
$var wire 32 > ID_EX_RT [31:0] $end
$var wire 32 ? ID_EX_RS [31:0] $end
$var wire 15 @ ID_EX_IS [14:0] $end
$var wire 32 A ID_EX_IMMEDIATE [31:0] $end
$var wire 7 B ID_EX_CONTROL [6:0] $end
$var wire 2 C ForwardB_o [1:0] $end
$var wire 2 D ForwardA_o [1:0] $end
$var wire 32 E EX_MEM_WRDATA [31:0] $end
$var wire 32 F EX_MEM_RESULT [31:0] $end
$var wire 5 G EX_MEM_REGDST [4:0] $end
$var wire 3 H EX_MEM_CONTROL [2:0] $end
$var wire 32 I ALUdata_o [31:0] $end
$scope module ADD $end
$var wire 32 J data1_in [31:0] $end
$var wire 32 K data2_in [31:0] $end
$var wire 32 L data_o [31:0] $end
$upscope $end
$scope module ALU $end
$var wire 1 M Zero_o $end
$var wire 1 N zero_o $end
$var wire 32 O data2_i [31:0] $end
$var wire 32 P data1_i [31:0] $end
$var wire 3 Q ALUCtrl_i [2:0] $end
$var reg 32 R data_o [31:0] $end
$upscope $end
$scope module ALU_Control $end
$var wire 2 S ALUOp_i [1:0] $end
$var wire 6 T funct_i [5:0] $end
$var wire 3 U ALUCtrl_o [2:0] $end
$upscope $end
$scope module Add_PC $end
$var wire 32 V data2_in [31:0] $end
$var wire 32 W data_o [31:0] $end
$var wire 32 X data1_in [31:0] $end
$upscope $end
$scope module Control $end
$var wire 1 Y ALUSrc_o $end
$var wire 1 Z Branch_o $end
$var wire 1 [ ExtOp_o $end
$var wire 1 \ Jump_o $end
$var wire 1 ] MemWrite_o $end
$var wire 1 ^ MemtoReg_o $end
$var wire 6 _ Op_i [5:0] $end
$var wire 1 ` RegDst_o $end
$var wire 1 a RegWrite_o $end
$var wire 1 b sw $end
$var wire 1 c r_type $end
$var wire 1 d lw $end
$var wire 1 e jump $end
$var wire 1 f beq $end
$var wire 1 g addi $end
$var wire 2 h ALUOp_o [1:0] $end
$upscope $end
$scope module Data_Memory $end
$var wire 32 i addr_i [31:0] $end
$var wire 1 j memWrite_i $end
$var wire 32 k write_data_i [31:0] $end
$var reg 32 l read_data_o [31:0] $end
$upscope $end
$scope module EX_MEM $end
$var wire 1 " clk_i $end
$var wire 1 # rst_i $end
$var wire 72 m write_i [71:0] $end
$var reg 72 n read_o [71:0] $end
$upscope $end
$scope module FW $end
$var wire 1 o EX_Hazard $end
$var wire 5 p EX_MEM_Rd_i [4:0] $end
$var wire 1 q EX_MEM_RegWrite_i $end
$var wire 5 r ID_EX_Rs_i [4:0] $end
$var wire 5 s ID_EX_Rt_i [4:0] $end
$var wire 1 t MEM_Hazard $end
$var wire 5 u MEM_WB_Rd_i [4:0] $end
$var wire 1 v MEM_WB_RegWrite_i $end
$var wire 2 w ForwardB_o [1:0] $end
$var wire 2 x ForwardA_o [1:0] $end
$upscope $end
$scope module HD $end
$var wire 1 y ID_EX_MemRead_i $end
$var wire 5 z ID_EX_Rt_i [4:0] $end
$var wire 5 { IF_ID_Rs_i [4:0] $end
$var wire 5 | IF_ID_Rt_i [4:0] $end
$var wire 1 ; IF_ID_Write_o $end
$var wire 1 5 PC_Write_o $end
$var wire 1 / bubble_o $end
$var wire 1 } stall $end
$upscope $end
$scope module ID_EX $end
$var wire 1 " clk_i $end
$var wire 1 # rst_i $end
$var wire 118 ~ write_i [117:0] $end
$var reg 118 !" read_o [117:0] $end
$upscope $end
$scope module IF_ID $end
$var wire 1 " clk_i $end
$var wire 1 ! flush_i $end
$var wire 1 # rst_i $end
$var wire 1 ; stall_i $end
$var wire 64 "" write_i [63:0] $end
$var reg 64 #" read_o [63:0] $end
$upscope $end
$scope module Instruction_Memory $end
$var wire 32 $" instr_o [31:0] $end
$var wire 32 %" addr_i [31:0] $end
$upscope $end
$scope module MEM_WB $end
$var wire 1 " clk_i $end
$var wire 1 # rst_i $end
$var wire 71 &" write_i [70:0] $end
$var reg 71 '" read_o [70:0] $end
$upscope $end
$scope module MUX1 $end
$var wire 32 (" data1_i [31:0] $end
$var wire 32 )" data2_i [31:0] $end
$var wire 1 *" select_i $end
$var wire 32 +" data_o [31:0] $end
$upscope $end
$scope module MUX2 $end
$var wire 32 ," data1_i [31:0] $end
$var wire 32 -" data2_i [31:0] $end
$var wire 1 \ select_i $end
$var wire 32 ." data_o [31:0] $end
$upscope $end
$scope module MUX5 $end
$var wire 32 /" data1_i [31:0] $end
$var wire 32 0" data2_i [31:0] $end
$var wire 1 1" select_i $end
$var wire 32 2" data_o [31:0] $end
$upscope $end
$scope module MUX8 $end
$var wire 7 3" data1_i [6:0] $end
$var wire 7 4" data2_i [6:0] $end
$var wire 1 / select_i $end
$var wire 7 5" data_o [6:0] $end
$upscope $end
$scope module MUX_ALUSrc $end
$var wire 32 6" data2_i [31:0] $end
$var wire 1 7" select_i $end
$var wire 32 8" data_o [31:0] $end
$var wire 32 9" data1_i [31:0] $end
$upscope $end
$scope module MUX_RegDst $end
$var wire 5 :" data1_i [4:0] $end
$var wire 5 ;" data2_i [4:0] $end
$var wire 1 <" select_i $end
$var wire 5 =" data_o [4:0] $end
$upscope $end
$scope module PC $end
$var wire 1 " clk_i $end
$var wire 32 >" pc_i [31:0] $end
$var wire 1 5 pc_write_i $end
$var wire 1 # rst_i $end
$var wire 1 $ start_i $end
$var reg 32 ?" pc_o [31:0] $end
$upscope $end
$scope module Registers $end
$var wire 5 @" RDaddr_i [4:0] $end
$var wire 32 A" RDdata_i [31:0] $end
$var wire 5 B" RSaddr_i [4:0] $end
$var wire 32 C" RSdata_o [31:0] $end
$var wire 5 D" RTaddr_i [4:0] $end
$var wire 32 E" RTdata_o [31:0] $end
$var wire 1 F" RegWrite_i $end
$var wire 1 " clk_i $end
$upscope $end
$scope module Sign_Extend $end
$var wire 16 G" data_i [15:0] $end
$var wire 32 H" data_o [31:0] $end
$upscope $end
$scope module mux6 $end
$var wire 32 I" data00_i [31:0] $end
$var wire 32 J" data01_i [31:0] $end
$var wire 32 K" data10_i [31:0] $end
$var wire 32 L" data11_i [31:0] $end
$var wire 2 M" select_i [1:0] $end
$var wire 32 N" data_o [31:0] $end
$upscope $end
$scope module mux7 $end
$var wire 32 O" data00_i [31:0] $end
$var wire 32 P" data01_i [31:0] $end
$var wire 32 Q" data10_i [31:0] $end
$var wire 32 R" data11_i [31:0] $end
$var wire 2 S" select_i [1:0] $end
$var wire 32 T" data_o [31:0] $end
$upscope $end
$upscope $end
$upscope $end
$enddefinitions $end
#50
$dumpvars
b0 T"
b0 S"
b0 R"
b0 Q"
b0 P"
b0 O"
b0 N"
b0 M"
b0 L"
b0 K"
b0 J"
b0 I"
b100000000100000 H"
b100000000100000 G"
0F"
b0 E"
b0 D"
b0 C"
b0 B"
b0 A"
b0 @"
b100 ?"
b1000 >"
b0 ="
1<"
b0 ;"
b0 :"
b0 9"
b0 8"
07"
b0 6"
b1001011 5"
b0 4"
b1001011 3"
b0 2"
01"
b101 0"
b0 /"
b1000 ."
b10000000010000000 -"
b1000 ,"
b1000 +"
0*"
b10000000010000100 )"
b1000 ("
b1010000000000000000000000000000000000000 '"
b1010000000000000000000000000000000000000 &"
b100 %"
b100000000010010000000000001010 $"
b10000000000000000000100000000100000 #"
b100000100000000010010000000000001010 ""
b1001011000000000000000000000000000000000000000000000000000000000000000000000000000000000000000000000000000000000000000 !"
b1001011000000000000000000000000000000000000000000000000000000000000000000000000000000000100000000100000000000000001000 ~
0}
b0 |
b0 {
b0 z
0y
b0 x
b0 w
0v
b0 u
0t
b0 s
b0 r
0q
b0 p
0o
b0 n
b100000000000000000000000000000000000000000000000000000000000000000000000 m
b101 l
b0 k
0j
b0 i
b11 h
0g
0f
0e
0d
1c
0b
1a
1`
b0 _
0^
0]
0\
0[
0Z
0Y
b100 X
b1000 W
b100 V
b10 U
b0 T
b11 S
b0 R
b10 Q
b0 P
b0 O
1N
zM
b10000000010000100 L
b100 K
b10000000010000000 J
b0 I
b0 H
b0 G
b0 F
b0 E
b0 D
b0 C
b1001011 B
b0 A
b0 @
b0 ?
b0 >
b100000000100000 =
b100 <
0;
b0 :
b101 9
b0 8
b0 7
b0 6
05
14
b0 3
b0 2
b1000 1
b10000000010000100 0
0/
b100000000100000 .
b100 -
b100000000010010000000000001010 ,
b1000 +
b0 *
b0 )
b0 (
b0 '
b1001011 &
b1000 %
1$
0#
1"
0!
$end
#75
0"
#100
1Y
b0 h
b1000100 &
b1000100 5"
b1000100 3"
0`
0c
1g
b100000000000000000000000000000000000000000000000000000000000000000001000 m
b1000 *
b1000 ="
b101000 J
b10000000000000000000000000000001010000000000000000000000000000000000000 &"
1q
b1000 ;"
b100000 T
b1001 |
b1000 _
b1001 D"
b1010 .
b1010 H"
b1010 G"
b1000100000000000000000000000000000000000000000000000000000000000000000000000000000000000000000000001010000000100100000 ~
b1001000000000000101000 -"
b1100 %
b1100 ."
b1100 >"
b100 H
b1000 @
b100000000100000 A
b100000000100000 6"
b100000000010010000000000001010 =
b110000 0
b110000 L
b110000 )"
b1000 <
b1000 K
b10101101000000000000000000000000 ,
b10101101000000000000000000000000 $"
b1100 +
b1100 +"
b1100 ,"
b100000000000000000000000000000000000000000000000000000000000000000000000 n
b1001011000000000000000000000000000000000000000000000000000000000000000000000000000000000100000000100000000000000001000 !"
b100000100000000010010000000000001010 #"
b110010101101000000000000000000000000 ""
b1100 1
b1100 W
b1100 ("
b1000 -
b1000 X
b1000 %"
b1000 ?"
1"
#125
0"
#150
0a
1[
b10100 &
b10100 5"
0N
0g
b10100 3"
1]
1b
b1010 I
b1010 R
b0 J
b1010 )
b1010 O
b1010 8"
b100000000000000000000000000000010100000000000000000000000000000000001001 m
b1001 *
b1001 ="
b10000 %
b10000 ."
b10000 >"
b1000 {
b0 |
b101011 _
b1000 B"
b0 D"
b0 .
b0 H"
b0 G"
b10100000000000000000000000000000000000000000000000000000000000000000000000000000000000000000000000000010000000000000 ~
b100000000000000000000000000 -"
b1001 s
b1001 :"
b0 ;"
b1001 z
b1010 T
17"
0<"
b0 S
1o
1v
1F"
b10101101000010010000000000000100 ,
b10101101000010010000000000000100 $"
b10000 +
b10000 +"
b10000 ,"
b10101101000000000000000000000000 =
b1100 0
b1100 L
b1100 )"
b1100 <
b1100 K
b100100000 @
b1010 A
b1010 6"
b1000100 B
b10000000000000000000000000000001010000000000000000000000000000000001000 &"
b1000 G
b1000 p
b10 :
b1000010101101000010010000000000000100 ""
b10000 1
b10000 W
b10000 ("
b1100 -
b1100 X
b1100 %"
b1100 ?"
b110010101101000000000000000000000000 #"
b1000100000000000000000000000000000000000000000000000000000000000000000000000000000000000000000000001010000000100100000 !"
b100000000000000000000000000000000000000000000000000000000000000000001000 n
b10000000000000000000000000000001010000000000000000000000000000000000000 '"
1"
#175
0"
#200
b1 D
b1 x
b1 M"
1N
b0 *
b0 ="
b0 I
b0 R
b10000 J
1t
b0 l
b1000 r
b0 s
b0 :"
b0 z
b0 T
b0 )
b0 O
b0 8"
b1000000000000000000000000000000000000000000000000000000000000000000000 m
b1001 |
b1001 D"
b100 .
b100 H"
b100 G"
b10100000000000000000000000000000000000000000000000000000000000000000000000000000000000000000000000100010000100100000 ~
b100001001000000000000010000 -"
b10100 %
b10100 ."
b10100 >"
b1000 8
b1000 u
b1000 @"
b1001 G
b1001 p
b10000000000000000000000000000000000000000000000000000000000000101001001 &"
b1010 F
b1010 i
b1010 K"
b1010 Q"
b10000000000000 @
b0 A
b0 6"
b10100 B
b10101101000010010000000000000100 =
b100000 0
b100000 L
b100000 )"
b10000 <
b10000 K
b10001101000011010000000000000100 ,
b10001101000011010000000000000100 $"
b10100 +
b10100 +"
b10100 ,"
b10000000000000000000000000000001010000000000000000000000000000000001000 '"
b100000000000000000000000000000010100000000000000000000000000000000001001 n
b10100000000000000000000000000000000000000000000000000000000000000000000000000000000000000000000000000010000000000000 !"
b1000010101101000010010000000000000100 #"
b1010010001101000011010000000000000100 ""
b10100 1
b10100 W
b10100 ("
b10000 -
b10000 X
b10000 %"
b10000 ?"
1"
#225
0"
#250
b1010 '
b1010 9"
b1010 T"
1a
1Y
b1100100 &
b1100100 5"
1^
1d
b1100100 3"
0]
0b
0N
b0 D
b0 x
b0 M"
b0 (
b0 P
b0 N"
b1001 *
b1001 ="
b1000000000000000000000000000001000000000000000000000000000000101001001 m
b100 I
b100 R
b1 C
b1 w
b1 S"
b11000 %
b11000 ."
b11000 >"
b1101 |
b100011 _
b1101 D"
b1100100000000000000000000000000000000000000000000000000000000000000000000000000000000000000000000000100010000110100000 ~
b100001101000000000000010000 -"
b1001 s
b1001 :"
b1001 z
b100 T
b100 )
b100 O
b100 8"
0o
1j
0q
b1010 6
b1010 2"
b1010 A"
b1010 J"
b1010 P"
b1101010010111100000100000 ,
b1101010010111100000100000 $"
b11000 +
b11000 +"
b11000 ,"
b10001101000011010000000000000100 =
b100100 0
b100100 L
b100100 )"
b10100 <
b10100 K
b10000100100000 @
b100 A
b100 6"
b0 G
b0 p
b0 &"
b0 F
b0 i
b0 K"
b0 Q"
b1 H
b1001 8
b1001 u
b1001 @"
b1010 7
b1010 /"
b0 9
b0 0"
b1100000000001101010010111100000100000 ""
b11000 1
b11000 W
b11000 ("
b10100 -
b10100 X
b10100 %"
b10100 ?"
b1010010001101000011010000000000000100 #"
b10100000000000000000000000000000000000000000000000000000000000000000000000000000000000000000000000100010000100100000 !"
b1000000000000000000000000000000000000000000000000000000000000000000000 n
b10000000000000000000000000000000000000000000000000000000000000101001001 '"
1"
#275
0"
#300
0Y
b11 h
0[
1a
b0 C
b0 w
b0 S"
b0 '
b0 9"
b0 T"
b0 &
b0 5"
1`
1c
b1001011 3"
0^
0d
b1101 *
b1101 ="
1/
1;
15
1}
b11110000010000000 J
0t
b0 6
b0 2"
b0 A"
b0 J"
b0 P"
0v
0F"
b1101 s
b1101 :"
b1101 z
b110000000000000000000000000000001000000000000000000000000000000000001101 m
1y
b1101 {
b1001 |
b0 _
b1101 B"
04
b1010 2
b1010 E"
b1001 D"
b111100000100000 .
b111100000100000 H"
b111100000100000 G"
b101000000000000000000111100000100000011010100101111 ~
b110101001011110000010000000 -"
b11100 %
b11100 ."
b11100 >"
b0 8
b0 u
b0 @"
b0 7
b0 /"
b0 :
b1001 G
b1001 p
b1010 E
b1010 k
b10001001 &"
b100 F
b100 i
b100 K"
b100 Q"
b10000110100000 @
b1100100 B
b1101010010111100000100000 =
b11110000010011000 0
b11110000010011000 L
b11110000010011000 )"
b11000 <
b11000 K
b100000000010100000000000001101 ,
b100000000010100000000000001101 $"
b11100 +
b11100 +"
b11100 ,"
b0 '"
b1000000000000000000000000000001000000000000000000000000000000101001001 n
b1100100000000000000000000000000000000000000000000000000000000000000000000000000000000000000000000000100010000110100000 !"
b1100000000001101010010111100000100000 #"
b1110000100000000010100000000000001101 ""
b11100 1
b11100 W
b11100 ("
b11000 -
b11000 X
b11000 %"
b11000 ?"
1"
#325
0"
#350
b100 (
b100 P
b100 N"
b10 D
b10 x
b10 M"
b1001011000000000000000000000000000000000000000000000000000000000000101000000000000000000111100000100000011010100101111 ~
b1001011 &
b1001011 5"
b1001 *
b1001 ="
b1110 I
b1110 R
0/
0;
05
0}
1o
b1101 r
b1001 s
b1001 :"
b1111 ;"
b1001 z
b100000 T
b1010 )
b1010 O
b1010 8"
b1010 '
b1010 9"
b1010 T"
07"
b11100000000000000000000000000000101001001 m
0y
b1010 l
0j
1q
b100 6
b100 2"
b100 A"
b100 J"
b100 P"
b11010100101111 @
b111100000100000 A
b111100000100000 6"
b1010 >
b1010 O"
b0 B
b11000000000000000000000000000010100000000000000000000000000000010001101 &"
b1101 G
b1101 p
b0 E
b0 k
b110 H
b1001 8
b1001 u
b1001 @"
b100 7
b100 /"
b101000000000000000000111100000100000011010100101111 !"
b110000000000000000000000000000001000000000000000000000000000000000001101 n
b10001001 '"
1"
#375
0"
#400
1N
1Y
b1010 )
b1010 O
b1010 8"
b10100 I
b10100 R
b0 h
b1000100 &
b1000100 5"
b1010 '
b1010 9"
b1010 T"
b1010 (
b1010 P
b1010 N"
b1000100 3"
0`
0c
1g
b1010 6
b1010 2"
b1010 A"
b1010 J"
b1010 P"
1t
b1 D
b1 x
b1 M"
b0 C
b0 w
b0 S"
0o
b1111 *
b1111 ="
b110100 J
11"
1v
1F"
b0 l
0q
1<"
b11 S
b100000000000000000000000000000101000000000000000000000000000000101001111 m
b0 {
b1010 |
b1000 _
b0 B"
14
b0 2
b0 E"
b1010 D"
b1101 .
b1101 H"
b1101 G"
b1000100000000000000000000000000000000000000000000000000000000000000000000000000000000000000000000001101000000101000000 ~
b1010000000000000110100 -"
b100000 %
b100000 ."
b100000 >"
b1101 8
b1101 u
b1101 @"
b1010 9
b1010 0"
b11 :
b1001 G
b1001 p
b1010 E
b1010 k
b111001001 &"
b1110 F
b1110 i
b1110 K"
b1110 Q"
b0 H
b1001011 B
b100000000010100000000000001101 =
b1010000 0
b1010000 L
b1010000 )"
b11100 <
b11100 K
b1001010010101100000011000 ,
b1001010010101100000011000 $"
b100000 +
b100000 +"
b100000 ,"
b11000000000000000000000000000010100000000000000000000000000000010001101 '"
b11100000000000000000000000000000101001001 n
b1001011000000000000000000000000000000000000000000000000000000000000101000000000000000000111100000100000011010100101111 !"
b1110000100000000010100000000000001101 #"
b10000000000001001010010101100000011000 ""
b100000 1
b100000 W
b100000 ("
b11100 -
b11100 X
b11100 %"
b11100 ?"
1"
#425
0"
#450
0Y
b11 h
b1001011 &
b1001011 5"
0N
b1001011 3"
1`
1c
0g
b1101 I
b1101 R
b0 D
b0 x
b0 M"
b0 (
b0 P
b0 N"
b10110000001100000 J
b1101 )
b1101 O
b1101 8"
b1010 *
b1010 ="
1o
0t
b100100 %
b100100 ."
b100100 >"
b1001 {
b1001 |
b0 _
b1010 3
b1010 C"
b1001 B"
14
b1010 2
b1010 E"
b1001 D"
b101100000011000 .
b101100000011000 H"
b101100000011000 G"
b1001011000000000000000000000000000010100000000000000000000000000000101000000000000000000101100000011000010010100101011 ~
b100101001010110000001100000 -"
b0 r
b1010 s
b1010 :"
b0 ;"
b1010 z
b1101 T
b100000000000000000000000000000011010000000000000000000000000000000001010 m
b0 '
b0 9"
b0 T"
17"
0<"
b0 S
1q
b1110 6
b1110 2"
b1110 A"
b1110 J"
b1110 P"
01"
0v
0F"
b1000000000000000000000001011 ,
b1000000000000000000000001011 $"
b100100 +
b100100 +"
b100100 ,"
b1001010010101100000011000 =
b10110000010000000 0
b10110000010000000 L
b10110000010000000 )"
b100000 <
b100000 K
b101000000 @
b1101 A
b1101 6"
b0 >
b0 O"
b1000100 B
b1111 G
b1111 p
b10000000000000000000000000000000000000000000000000000000000001010001111 &"
b10100 F
b10100 i
b10100 K"
b10100 Q"
b100 H
b1001 8
b1001 u
b1001 @"
b1110 7
b1110 /"
b0 9
b0 0"
b0 :
b10010000001000000000000000000000001011 ""
b100100 1
b100100 W
b100100 ("
b100000 -
b100000 X
b100000 %"
b100000 ?"
b10000000000001001010010101100000011000 #"
b1000100000000000000000000000000000000000000000000000000000000000000000000000000000000000000000000001101000000101000000 !"
b100000000000000000000000000000101000000000000000000000000000000101001111 n
b111001001 '"
1"
#475
0"
#500
0a
b0 h
b0 &
b0 5"
1!
1N
b0 3"
0`
0c
1\
1e
1t
b1100100 I
b1100100 R
b1011 *
b1011 ="
b11 Q
b11 U
b101100 J
b10100 6
b10100 2"
b10100 A"
b10100 J"
b10100 P"
1v
1F"
b1001 r
b1001 s
b1001 :"
b1011 ;"
b1001 z
b11000 T
b1010 )
b1010 O
b1010 8"
b100000000000000000000000000011001000000000000000000000000000000101001011 m
b1010 '
b1010 9"
b1010 T"
b1010 (
b1010 P
b1010 N"
07"
1<"
b11 S
b0 {
b0 |
b10 _
b0 3
b0 C"
b0 B"
14
b0 2
b0 E"
b0 D"
b1011 .
b1011 H"
b1011 G"
b1011000000000000000 ~
b101100 -"
b101100 %
b101100 ."
b101100 >"
b1111 8
b1111 u
b1111 @"
b10100 7
b10100 /"
b10 :
b1010 G
b1010 p
b0 E
b0 k
b10000000000000000000000000000000000000000000000000000000000000110101010 &"
b1101 F
b1101 i
b1101 K"
b1101 Q"
b10010100101011 @
b101100000011000 A
b101100000011000 6"
b1010 >
b1010 O"
b1010 ?
b1010 I"
b1001011 B
b1000000000000000000000001011 =
b1010000 0
b1010000 L
b1010000 )"
b100100 <
b100100 K
b100001001010010000000000000001 ,
b100001001010010000000000000001 $"
b101000 +
b101000 +"
b101000 ,"
b10000000000000000000000000000000000000000000000000000000000001010001111 '"
b100000000000000000000000000000011010000000000000000000000000000000001010 n
b1001011000000000000000000000000000010100000000000000000000000000000101000000000000000000101100000011000010010100101011 !"
b10010000001000000000000000000000001011 #"
b10100000100001001010010000000000000001 ""
b101000 1
b101000 W
b101000 ("
b100100 -
b100100 X
b100100 %"
b100100 ?"
1"
#525
0"
#550
1a
b11 h
b1001011 &
b1001011 5"
0!
b1001011 3"
1`
1c
0\
0e
1N
b10000000 J
b110000 %
b110000 ."
b110000 >"
b0 )
b0 O
b0 8"
b0 I
b0 R
b0 *
b0 ="
b10 Q
b10 U
b0 _
b1001011000000000000000000000000000000000000000000000000000000000000000000000000000000000000000000100000000000000000000 ~
b100000 .
b100000 H"
b100000 G"
b10000000 -"
b0 r
b0 s
b0 :"
b0 ;"
b0 z
b1011 T
b0 '
b0 9"
b0 T"
b0 (
b0 P
b0 N"
0<"
b0 S
b0 m
bx l
b1101 6
b1101 2"
b1101 A"
b1101 J"
b1101 P"
b1010010010101000000100010 ,
b1010010010101000000100010 $"
b110000 +
b110000 +"
b110000 ,"
b100000 =
b10000000 0
b10000000 L
b10000000 )"
b0 <
b0 K
b0 @
b1011 A
b1011 6"
b0 >
b0 O"
b0 ?
b0 I"
b0 B
b1011 G
b1011 p
b1010 E
b1010 k
b10xxxxxxxxxxxxxxxxxxxxxxxxxxxxxxxx0000000000000000000000000110010001011 &"
b1100100 F
b1100100 i
b1100100 K"
b1100100 Q"
b1010 8
b1010 u
b1010 @"
b1101 7
b1101 /"
b11000000000001010010010101000000100010 ""
b110000 1
b110000 W
b110000 ("
b101100 -
b101100 X
b101100 %"
b101100 ?"
b100000 #"
b1011000000000000000 !"
b100000000000000000000000000011001000000000000000000000000000000101001011 n
b10000000000000000000000000000000000000000000000000000000000000110101010 '"
1"
#575
0"
#600
b0 D
b0 x
b0 M"
b0 C
b0 w
b0 S"
b10 Q
b10 U
b10100000010001000 J
b1100100 6
b1100100 2"
b1100100 A"
b1100100 J"
b1100100 P"
0o
b0 l
0q
b100000 T
1<"
b11 S
b100000000000000000000000000000000000000000000000000000000000000000000000 m
b1010 {
b1001 |
b1101 3
b1101 C"
b1010 B"
04
b1010 2
b1010 E"
b1001 D"
b101000000100010 .
b101000000100010 H"
b101000000100010 G"
b1001011000000000000000000000000000011010000000000000000000000000000101000000000000000000101000000100010010100100101010 ~
b101001001010100000010001000 -"
b110100 %
b110100 ."
b110100 >"
b1011 8
b1011 u
b1011 @"
b1100100 7
b1100100 /"
bx 9
bx 0"
b0 G
b0 p
b0 E
b0 k
b0 &"
b0 F
b0 i
b0 K"
b0 Q"
b0 H
b100000 A
b100000 6"
b1001011 B
b1010010010101000000100010 =
b10100000010111000 0
b10100000010111000 L
b10100000010111000 )"
b110000 <
b110000 K
b1001010100101100000100100 ,
b1001010100101100000100100 $"
b110100 +
b110100 +"
b110100 ,"
b10xxxxxxxxxxxxxxxxxxxxxxxxxxxxxxxx0000000000000000000000000110010001011 '"
b0 n
b1001011000000000000000000000000000000000000000000000000000000000000000000000000000000000000000000100000000000000000000 !"
b11000000000001010010010101000000100010 #"
b11010000000001001010100101100000100100 ""
b110100 1
b110100 W
b110100 ("
b110000 -
b110000 X
b110000 %"
b110000 ?"
1"
#625
0"
#650
b110 Q
b110 U
0N
b10110000010010000 J
b1010 *
b1010 ="
b1010 )
b1010 O
b1010 8"
b11 I
b11 R
b111000 %
b111000 ."
b111000 >"
b1001 {
b1010 |
b1010 3
b1010 C"
b1001 B"
04
b1101 2
b1101 E"
b1010 D"
b101100000100100 .
b101100000100100 H"
b101100000100100 G"
b1001011000000000000000000000000000010100000000000000000000000000000110100000000000000000101100000100100010010101001011 ~
b100101010010110000010010000 -"
b1010 r
b1001 s
b1001 :"
b1010 ;"
b1001 z
b100010 T
b100000000000000000000000000000000110000000000000000000000000000101001010 m
b1010 '
b1010 9"
b1010 T"
b1101 (
b1101 P
b1101 N"
b10000000000000000000000000000000000000000000000000000000000000000000000 &"
1q
0t
b0 6
b0 2"
b0 A"
b0 J"
b0 P"
0v
0F"
b1010010110110000000100101 ,
b1010010110110000000100101 $"
b111000 +
b111000 +"
b111000 ,"
b1001010100101100000100100 =
b10110000011000100 0
b10110000011000100 L
b10110000011000100 )"
b110100 <
b110100 K
b10100100101010 @
b101000000100010 A
b101000000100010 6"
b1010 >
b1010 O"
b1101 ?
b1101 I"
b100 H
b0 8
b0 u
b0 @"
b0 7
b0 /"
b0 9
b0 0"
b0 :
b11100000000001010010110110000000100101 ""
b111000 1
b111000 W
b111000 ("
b110100 -
b110100 X
b110100 %"
b110100 ?"
b11010000000001001010100101100000100100 #"
b1001011000000000000000000000000000011010000000000000000000000000000101000000000000000000101000000100010010100100101010 !"
b100000000000000000000000000000000000000000000000000000000000000000000000 n
b0 '"
1"
#675
0"
#700
b0 Q
b0 U
b10 C
b10 w
b10 S"
0N
b1011 *
b1011 ="
b11 )
b11 O
b11 8"
b10 I
b10 R
b11000000010010100 J
1v
1F"
1o
b1001 r
b1010 s
b1010 :"
b1011 ;"
b1010 z
b100100 T
b100000000000000000000000000000000100000000000000000000000000000001101011 m
b11 '
b11 9"
b11 T"
b1010 (
b1010 P
b1010 N"
b1010 {
b1011 |
b1101 3
b1101 C"
b1010 B"
b1100100 2
b1100100 E"
b1011 D"
b110000000100101 .
b110000000100101 H"
b110000000100101 G"
b1001011000000000000000000000000000011010000000000000000000000000110010000000000000000000110000000100101010100101101100 ~
b101001011011000000010010100 -"
b111100 %
b111100 ."
b111100 >"
b10 :
b1010 G
b1010 p
b1010 E
b1010 k
b10000000000000000000000000000000000000000000000000000000000000001101010 &"
b11 F
b11 i
b11 K"
b11 Q"
b10010101001011 @
b101100000100100 A
b101100000100100 6"
b1101 >
b1101 O"
b1010 ?
b1010 I"
b1010010110110000000100101 =
b11000000011001100 0
b11000000011001100 L
b11000000011001100 )"
b111000 <
b111000 K
b0 ,
b0 $"
b111100 +
b111100 +"
b111100 ,"
b10000000000000000000000000000000000000000000000000000000000000000000000 '"
b100000000000000000000000000000000110000000000000000000000000000101001010 n
b1001011000000000000000000000000000010100000000000000000000000000000110100000000000000000101100000100100010010101001011 !"
b11100000000001010010110110000000100101 #"
b11110000000000000000000000000000000000 ""
b111100 1
b111100 W
b111100 ("
b111000 -
b111000 X
b111000 %"
b111000 ?"
1"
#725
0"
